<svg xmlns="http://www.w3.org/2000/svg" xmlns:xlink="http://www.w3.org/1999/xlink" width="31" height="32" viewBox="0 0 31 32">
    <defs>
        <ellipse id="c5r4esdflb" cx="10.397" cy="9.723" rx="9.397" ry="9.723"/>
        <filter id="1kx0tz6k1a" width="171.8%" height="169.4%" x="-35.9%" y="-34.7%" filterUnits="objectBoundingBox">
            <feMorphology in="SourceAlpha" operator="dilate" radius=".75" result="shadowSpreadOuter1"/>
            <feOffset in="shadowSpreadOuter1" result="shadowOffsetOuter1"/>
            <feGaussianBlur in="shadowOffsetOuter1" result="shadowBlurOuter1" stdDeviation="2"/>
            <feComposite in="shadowBlurOuter1" in2="SourceAlpha" operator="out" result="shadowBlurOuter1"/>
            <feColorMatrix in="shadowBlurOuter1" values="0 0 0 0 0.224441714 0 0 0 0 0.553437528 0 0 0 0 0.929432745 0 0 0 1 0"/>
        </filter>
    </defs>
    <g fill="none" fill-rule="evenodd">
        <g>
            <g>
                <g>
                    <g>
                        <path fill="#FFF" fill-rule="nonzero" d="M15.5-1c3.75 0 6.938 1.326 9.563 3.978C27.688 5.63 29 8.811 29 12.521c0 3.099-.949 5.845-2.847 8.239-1.898 2.393-4.3 3.99-7.207 4.79L15.5 29l-3.445-3.45c-2.906-.8-5.309-2.396-7.208-4.79C2.948 18.365 2 15.619 2 12.52c0-3.709 1.313-6.89 3.938-9.543C8.563.325 11.75-1 15.5-1z" transform="translate(-9121 -288) translate(9068 284) rotate(-90 44.938 -8.063) translate(1.375 1.5) rotate(90 15.5 14)"/>
                        <g transform="translate(-9121 -288) translate(9068 284) rotate(-90 44.938 -8.063) translate(1.375 1.5) translate(6.756 4.2) rotate(90 10.397 9.723)">
                            <g>
                                <use fill="#000" filter="url(#1kx0tz6k1a)" xlink:href="#c5r4esdflb"/>
                                <use fill="#FFF" stroke="#398DED" stroke-width="1.5" xlink:href="#c5r4esdflb"/>
                            </g>
                            <ellipse cx="10.397" cy="9.723" fill="#398DED" rx="6.681" ry="6.913"/>
                        </g>
                    </g>
                </g>
            </g>
        </g>
    </g>
</svg>
